近江貝塚研第324回例会「陽明文庫所蔵史料と松尾大社所蔵史料の料紙における構成物の変化」関連データ
…
料紙面積と構成物の相関分析（無相関検定）

松尾大社社蔵史料

帰無仮説H₀：母相関は0である「調査史料では料紙面積と構成物に相関がない」

対立仮説H₁：母相関は0ではない「調査史料では料紙面積と構成物に相関がある」

tbs1 <- read_csv("matsunoo-square.csv")  # CSVファイルの読み取り
tbs1 # 読み込んだデータ

# A tibble: 239 x 4
   目録番号 紙素材 料紙面積 構成物合計
      <dbl> <chr>     <dbl>      <dbl>
 1        1 コウゾ    1546.         15
 2        1 コウゾ    1546.         20
 3        1 コウゾ    1546.          6
 4        2 コウゾ    2014.         90
 5        2 コウゾ    2014.         43
 6        2 コウゾ    2014.         40
 7        2 コウゾ    2014.         75
 8        2 コウゾ    2014.         43
 9        2 コウゾ    2014.         87
10        2 コウゾ    2014.         72
# ... with 229 more rows
…
陽明文庫所蔵史料

帰無仮説H₀：母相関は0である「調査史料では料紙面積と構成物に相関がない」

対立仮説H₁：母相関は0ではない「調査史料では料紙面積と構成物に相関がある」

tbs3 <- read_csv("yomei-square.csv")  # CSVファイルの読み取り
tbs3 # 読み込んだデータ

# A tibble: 320 x 4
   目録番号 紙素材 料紙面積 構成物合計
      <dbl> <chr>     <dbl>      <dbl>
 1        1 コウゾ    1546.         15
 2        1 コウゾ    1546.         20
 3        1 コウゾ    1546.          6
 4        2 コウゾ    2014.         90
 5        2 コウゾ    2014.         43
 6        2 コウゾ    2014.         40
 7        2 コウゾ    2014.         75
 8        2 コウゾ    2014.         43
 9        2 コウゾ    2014.         87
10        2 コウゾ    2014.         72
# ... with 310 more rows
…
料紙構成物に対する主成分分析

松尾大社社蔵史料

tbs5 <- read_csv("matsunoo-compo.csv")  # CSVファイルの読み取り
tbs5 # 読み込んだデータ

# A tibble: 63 x 7
   目録番号 紙素材 デンプン粒  鉱物 細胞組織  繊維  ほか
      <dbl> <chr>       <dbl> <dbl>    <dbl> <dbl> <dbl>
 1        1 コウゾ          0     0        0     0    41
 2        2 コウゾ          0     0      497     6    62
 3        3 コウゾ          2     6      263     0     0
 4        4 コウゾ          0     1      236     5     0
 5        5 コウゾ          0     0      207     6     0
 6        6 コウゾ          0     0      207     6     0
 7        7 コウゾ          0     0      348     9     0
 8        8 コウゾ          0     0      194     9     0
 9        9 コウゾ          0     0      326     8     0
10       10 宿紙           20     0       35     4     0
# ... with 53 more rows
…
ggsave(file = "Fig5.png", width = 6, height = 6, dpi = 300) # ファイルの保存

細胞組織の断片と繊維は同じ意味をもつ変数，すなわち素材由来の構成物であり，デンプン粒と鉱物，ほか（他の物質）は填料を示している。

陽明文庫所蔵史料

tbs7 <- read_csv("yomei-compo.csv")  # CSVファイルの読み取り
tbs7 # 読み込んだデータ

# A tibble: 89 x 7
   史料番号 紙素材 デンプン粒  鉱物 細胞組織  繊維  ほか
   <chr>    <chr>       <dbl> <dbl>    <dbl> <dbl> <dbl>
 1 11-391   コウゾ         20     3       97     1    28
 2 11-392   コウゾ          0     0       62     0     0
 3 11-393   コウゾ          5     1      119     0     0
 4 11-394   コウゾ          0     0       74     0    10
 5 11-396   コウゾ          0     1      108     0     0
 6 11-397   コウゾ          0     1       58     1     0
 7 11-398   コウゾ          0     0       91     0     0
 8 11-399   コウゾ          0     0       48     0    10
 9 11-400   コウゾ         81     4       95     0     0
10 11-401   コウゾ          0     0       19     0     5
# ... with 79 more rows
…
料紙構成物の因子分析

料紙構成物に共通して影響する因子を仮定，この因子から変数間の相関関係を考える。

松尾大社社蔵史料

# 因子分析を行うパッケージを読み込む
library(psych)
library(GPArotation)

tbs9<- read_csv("matsunoo-compo.csv")  # CSVファイルの読み取り
tbs9 # 読み込んだデータ

# A tibble: 63 x 7
   目録番号 紙素材 デンプン粒  鉱物 細胞組織  繊維  ほか
      <dbl> <chr>       <dbl> <dbl>    <dbl> <dbl> <dbl>
 1        1 コウゾ          0     0        0     0    41
 2        2 コウゾ          0     0      497     6    62
 3        3 コウゾ          2     6      263     0     0
 4        4 コウゾ          0     1      236     5     0
 5        5 コウゾ          0     0      207     6     0
 6        6 コウゾ          0     0      207     6     0
 7        7 コウゾ          0     0      348     9     0
 8        8 コウゾ          0     0      194     9     0
 9        9 コウゾ          0     0      326     8     0
10       10 宿紙           20     0       35     4     0
# ... with 53 more rows
…
陽明文庫所蔵史料の料紙構成物

tbs11<- read_csv("yomei-compo.csv")  # CSVファイルの読み取り
tbs11 # 読み込んだデータ

# A tibble: 89 x 7
   史料番号 紙素材 デンプン粒  鉱物 細胞組織  繊維  ほか
   <chr>    <chr>       <dbl> <dbl>    <dbl> <dbl> <dbl>
 1 11-391   コウゾ         20     3       97     1    28
 2 11-392   コウゾ          0     0       62     0     0
 3 11-393   コウゾ          5     1      119     0     0
 4 11-394   コウゾ          0     0       74     0    10
 5 11-396   コウゾ          0     1      108     0     0
 6 11-397   コウゾ          0     1       58     1     0
 7 11-398   コウゾ          0     0       91     0     0
 8 11-399   コウゾ          0     0       48     0    10
 9 11-400   コウゾ         81     4       95     0     0
10 11-401   コウゾ          0     0       19     0     5
# ... with 79 more rows
…
